<svg width="65" height="70" viewBox="0 0 65 70" fill="none" xmlns="http://www.w3.org/2000/svg">
<path d="M57.1337 0H7.86614C5.26487 0 3.14844 2.27896 3.14844 5.08047V64.9195C3.14844 67.7209 5.26462 70 7.86602 70H57.1336C59.7349 70 61.8512 67.721 61.8512 64.9195V5.08047C61.8512 2.27896 59.735 0 57.1337 0ZM14.2898 66.774H7.86602C6.91641 66.774 6.1439 65.9422 6.1439 64.9195V57.4457H14.2898V66.774V66.774ZM14.2898 54.2198H6.14402V44.8915H14.29V54.2198H14.2898ZM14.2898 41.6654H6.14402V32.3371H14.29V41.6654H14.2898ZM25.4314 66.774H17.2854V57.4457H25.4314V66.774V66.774ZM25.4314 54.2198H17.2854V44.8915H25.4314V54.2198V54.2198ZM25.4314 41.6654H17.2854V32.3371H25.4314V41.6654V41.6654ZM25.4314 29.111H17.2854V19.7827H25.4314V29.111V29.111ZM36.5728 66.774H28.4268V57.4457H36.5728V66.774ZM28.4268 54.2198V44.8915H36.5728V54.2198H28.4268ZM36.5728 41.6654H28.4268V32.3371H36.5728V41.6654ZM28.4268 29.1111V19.7828H36.5728V29.1111H28.4268V29.1111ZM47.7142 66.774H39.5682V57.4457H47.7142V66.774ZM47.7142 54.2198H39.5682V44.8915H47.7142V54.2198ZM47.7142 41.6654H39.5682V32.3371H47.7142V41.6654ZM47.7142 29.111H39.5682V19.7827H47.7142V29.111ZM58.8557 64.9195C58.8557 65.9422 58.0832 66.774 57.1337 66.774H50.7098V44.8913H58.8557V64.9195ZM58.8557 41.6654H50.7098V32.3371H58.8557V41.6654ZM58.8557 29.1111H50.7098V19.7828H58.8557V29.1111ZM58.8557 16.5566H6.21232V19.7827H14.29V29.111H6.14402V5.08047C6.14402 4.05795 6.91653 3.22602 7.86614 3.22602H57.1337C58.0832 3.22602 58.8557 4.05795 58.8557 5.08047V16.5566V16.5566Z" fill="#0D3289"/>
<path d="M55.8607 12.0403H50.866C50.0387 12.0403 49.3682 12.7624 49.3682 13.6533C49.3682 14.5441 50.0387 15.2663 50.866 15.2663H55.8607C56.6879 15.2663 57.3585 14.5441 57.3585 13.6533C57.3585 12.7624 56.6878 12.0403 55.8607 12.0403Z" fill="#0D3289"/>
</svg>
