<?xml version="1.0" encoding="UTF-8"?>
<!DOCTYPE svg PUBLIC "-//W3C//DTD SVG 1.1//EN" "http://www.w3.org/Graphics/SVG/1.1/DTD/svg11.dtd">
<!-- Creator: CorelDRAW X8 -->
<svg xmlns="http://www.w3.org/2000/svg" xml:space="preserve" width="82.742mm" height="9.678mm" version="1.1" style="shape-rendering:geometricPrecision; text-rendering:geometricPrecision; image-rendering:optimizeQuality; fill-rule:evenodd; clip-rule:evenodd"
viewBox="0 0 1503 176"
 xmlns:xlink="http://www.w3.org/1999/xlink">
 <defs>
  <style type="text/css">
   <![CDATA[
    .fil0 {fill:#2B2A29;fill-rule:nonzero}
   ]]>
  </style>
 </defs>
 <g id="Слой_x0020_1">
  <metadata id="CorelCorpID_0Corel-Layer"/>
  <path class="fil0" d="M280 29c0,8 -4,15 -10,20 -7,6 -14,8 -22,8 -9,0 -16,-2 -22,-8l-40 111c-4,11 -10,16 -20,16 -12,0 -20,-6 -22,-16l-19 -94 -27 79c-3,9 -8,15 -16,20 -8,5 -16,7 -25,7l-57 0c4,-9 6,-15 9,-18 5,-7 10,-11 17,-11 3,0 9,1 17,3 8,1 14,2 18,2 8,0 14,-5 17,-15l37 -107c3,-9 6,-15 8,-18 4,-5 10,-7 18,-7 12,0 20,8 23,25l17 82 25 -69c9,-26 23,-39 41,-39 9,0 16,3 23,8 6,5 10,12 10,21zm92 128c-3,6 -7,10 -12,13 -5,3 -11,4 -17,4 -11,0 -20,-3 -26,-10 -6,-7 -9,-18 -9,-33l0 -60 18 0 0 60c0,11 2,18 5,22 3,4 8,6 15,6 6,0 12,-1 16,-4 4,-2 7,-6 10,-11l0 -73 18 0 0 101 -17 0 -1 -15zm61 -86l1 14c4,-5 8,-9 13,-12 5,-2 11,-3 18,-3 6,0 12,1 17,4 5,3 8,8 11,14 3,-6 7,-10 12,-13 5,-4 12,-5 18,-5 11,0 19,3 25,10 6,7 9,18 9,32l0 60 -19 0 0 -60c0,-10 -1,-17 -5,-21 -3,-5 -8,-7 -15,-7 -6,0 -11,3 -15,7 -4,4 -6,10 -7,16l0 1 0 64 -19 0 0 -60c0,-10 -1,-17 -5,-21 -3,-4 -8,-7 -15,-7 -5,0 -10,2 -14,4 -3,2 -6,5 -8,10l0 74 -18 0 0 -101 16 0zm192 103c-14,0 -26,-5 -34,-14 -8,-9 -12,-21 -12,-36l0 -4c0,-15 4,-27 13,-36 8,-10 18,-14 30,-14 14,0 24,4 31,12 6,8 10,20 10,34l0 9 -65 0 0 1c0,10 2,18 7,24 4,7 11,10 20,10 6,0 12,-1 16,-3 5,-2 9,-4 13,-7l7 12c-4,3 -9,6 -15,9 -5,2 -13,3 -21,3zm-3 -90c-6,0 -11,2 -16,7 -4,5 -6,12 -7,19l0 1 45 0 0 -2c0,-7 -2,-13 -5,-18 -4,-5 -9,-7 -17,-7zm109 4l-9 -1c-5,0 -9,1 -13,3 -3,3 -6,6 -7,10l0 72 -19 0 0 -101 17 0 1 15c3,-5 7,-9 11,-12 4,-3 9,-4 14,-4 2,0 3,0 4,0 2,0 3,0 3,1l-2 17zm39 84l-18 0 0 -101 18 0 0 101zm0 -126l-18 0 0 -19 18 0 0 19zm68 114c6,0 11,-2 15,-6 4,-4 6,-8 6,-14l17 0 0 1c0,9 -3,16 -11,23 -8,7 -17,10 -27,10 -14,0 -25,-5 -33,-14 -7,-10 -11,-22 -11,-36l0 -4c0,-14 4,-26 11,-36 8,-10 19,-14 33,-14 11,0 21,3 28,10 7,7 10,15 10,26l0 0 -17 0c0,-6 -2,-11 -6,-16 -4,-4 -9,-6 -15,-6 -9,0 -15,3 -20,10 -4,7 -6,16 -6,26l0 4c0,10 2,18 6,25 4,7 11,11 20,11zm122 12c-1,-3 -1,-6 -2,-8 0,-2 0,-5 0,-7 -4,5 -8,9 -14,12 -5,3 -11,5 -17,5 -11,0 -19,-3 -24,-8 -6,-5 -8,-13 -8,-22 0,-10 3,-17 11,-23 8,-5 19,-8 32,-8l20 0 0 -10c0,-6 -2,-10 -6,-14 -3,-3 -8,-5 -15,-5 -6,0 -11,1 -14,4 -4,3 -6,7 -6,11l-17 0 0 0c-1,-8 3,-14 10,-20 7,-6 17,-9 28,-9 12,0 21,2 28,8 7,6 10,14 10,25l0 49c0,3 0,7 1,10 0,4 1,7 2,10l-19 0zm-31 -13c7,0 13,-2 18,-5 6,-4 9,-8 11,-12l0 -17 -21 0c-7,0 -13,2 -17,6 -5,4 -7,8 -7,13 0,5 1,8 4,11 3,2 7,4 12,4zm94 13l-19 0 0 -145 19 0 0 145zm101 -125l0 24 19 0 0 14 -19 0 0 61c0,5 1,8 3,10 2,2 4,3 8,3 1,0 2,0 3,0 1,-1 2,-1 3,-1l3 12c-1,1 -4,2 -6,3 -3,1 -6,1 -8,1 -8,0 -14,-2 -18,-7 -4,-4 -7,-11 -7,-21l0 -61 -16 0 0 -14 16 0 0 -24 19 0zm80 127c-14,0 -25,-5 -34,-14 -8,-9 -12,-21 -12,-36l0 -4c0,-15 4,-27 13,-36 8,-10 18,-14 30,-14 14,0 24,4 31,12 6,8 10,20 10,34l0 9 -65 0 0 1c0,10 2,18 7,24 4,7 11,10 20,10 7,0 12,-1 17,-3 4,-2 8,-4 12,-7l7 12c-4,3 -8,6 -14,9 -6,2 -13,3 -22,3zm-3 -90c-6,0 -11,2 -15,7 -5,5 -7,12 -8,19l0 1 45 0 0 -2c0,-7 -1,-13 -5,-18 -4,-5 -9,-7 -17,-7zm120 61c0,-4 -2,-7 -5,-10 -3,-2 -9,-5 -17,-7 -12,-2 -21,-6 -27,-10 -7,-5 -10,-11 -10,-19 0,-8 4,-15 11,-21 7,-6 16,-8 27,-8 11,0 20,3 27,9 8,6 11,13 11,22l-1 0 -17 0c0,-4 -2,-8 -6,-12 -4,-3 -9,-5 -14,-5 -7,0 -12,1 -15,4 -3,3 -5,7 -5,11 0,4 2,7 5,9 2,2 8,4 17,6 12,3 21,6 28,11 6,5 9,11 9,19 0,9 -3,16 -10,22 -8,5 -17,8 -29,8 -13,0 -23,-3 -30,-10 -8,-6 -11,-14 -11,-22l0 -1 18 0c0,6 3,11 7,14 5,3 10,5 16,5 7,0 12,-2 15,-4 4,-3 6,-7 6,-11zm67 -98l0 24 19 0 0 14 -19 0 0 61c0,5 1,8 3,10 2,2 4,3 7,3 1,0 3,0 4,0 1,-1 2,-1 3,-1l3 12c-2,1 -4,2 -6,3 -3,1 -6,1 -8,1 -8,0 -14,-2 -18,-7 -4,-4 -7,-11 -7,-21l0 -61 -16 0 0 -14 16 0 0 -24 19 0zm97 98c0,-4 -2,-7 -5,-10 -3,-2 -8,-5 -17,-7 -12,-2 -21,-6 -27,-10 -7,-5 -10,-11 -10,-19 0,-8 4,-15 11,-21 7,-6 16,-8 27,-8 11,0 20,3 27,9 8,6 11,13 11,22l-1 0 -17 0c0,-4 -2,-8 -6,-12 -4,-3 -8,-5 -14,-5 -7,0 -12,1 -15,4 -3,3 -5,7 -5,11 0,4 2,7 5,9 2,2 8,4 17,6 12,3 21,6 28,11 6,5 9,11 9,19 0,9 -3,16 -10,22 -8,5 -17,8 -29,8 -13,0 -23,-3 -30,-10 -8,-6 -11,-14 -11,-22l0 -1 18 0c0,6 3,11 7,14 5,3 10,5 16,5 7,0 12,-2 15,-4 4,-3 6,-7 6,-11z"/>
 </g>
</svg>
