<svg width="161" height="121" viewBox="0 0 161 121" fill="none" xmlns="http://www.w3.org/2000/svg">
<path d="M0 120.455H161L140.875 80.9825H20.125L0 120.455Z" fill="#272748"/>
<path d="M138.989 2.22083H22.0117V70.3687H138.989V2.22083Z" fill="#6B6B6B"/>
<path d="M137.102 3.89661V68.6935H23.8984V3.89661H137.102ZM140.875 0.545044H20.125V72.045H140.875V0.545044H140.875Z" fill="#333333"/>
<g opacity="0.2">
<path opacity="0.2" d="M23.9033 24.1176V3.901H46.6647L23.9033 24.1176Z" fill="white"/>
</g>
<path d="M89.0938 54.7464H80.6866L77.3458 47.0245H62.0433L58.884 54.7464H50.6855L65.5957 20.7482H73.7689L89.0938 54.7464ZM74.8654 41.2955L69.5826 28.6802L64.413 41.2955H74.8654Z" fill="white"/>
<path d="M95.624 38.9717V32.1346H87.8633V27.4136H95.624V20.5764H100.796V27.4158H108.574V32.1368H100.794V38.974L95.624 38.9717Z" fill="white"/>
</svg>
