<svg width="170" height="130" viewBox="0 0 170 130" fill="none" xmlns="http://www.w3.org/2000/svg">
<path d="M170 4.4452V85.9014H0V4.4452C0 1.99078 2.12603 0 4.74722 0H165.253C167.874 0 170 1.99078 170 4.4452Z" fill="#5F92EE"/>
<path d="M164.965 0.331299H109.82L54.3193 86.2327H169.712V4.7765C169.712 2.32207 167.586 0.331299 164.965 0.331299Z" fill="#15254C"/>
<path d="M100.128 100.97L103.688 126.32H66.3154L69.8758 100.97H100.128Z" fill="#0D3289"/>
<path d="M170 85.9013V96.5212C170 98.9793 167.874 100.97 165.253 100.97H100.128H69.8761H4.74722C2.12603 100.97 0 98.9793 0 96.5212V85.9013H170Z" fill="#3860A8"/>
<path d="M117.942 122.64H52.0586V130H117.942V122.64Z" fill="#3860A8"/>
<path d="M140.02 60.4776H124.301V71.3514H140.02V60.4776Z" fill="#777D88"/>
<path d="M108.581 38.9912H92.8613V71.5317H108.581V38.9912Z" fill="#777D88"/>
<path d="M45.7046 48.717H29.9854V71.5318H45.7046V48.717Z" fill="#777D88"/>
<path d="M77.1421 27.8158H61.4229V71.5319H77.1421V27.8158Z" fill="#777D88"/>
</svg>
