<svg width="20" height="19" viewBox="0 0 20 19" fill="none" xmlns="http://www.w3.org/2000/svg">
<g style="mix-blend-mode:darken">
<path d="M7.5442 15.128C6.4242 15.128 5.61887 14.8133 5.1282 14.184C4.6482 13.544 4.4082 12.6053 4.4082 11.368H6.1202C6.1202 12.0933 6.2162 12.6747 6.4082 13.112C6.61087 13.5493 7.0002 13.768 7.5762 13.768C8.01353 13.768 8.33887 13.64 8.5522 13.384C8.76553 13.128 8.89887 12.792 8.9522 12.376C9.0162 11.9493 9.0482 11.384 9.0482 10.68C9.0482 10.0293 9.01087 9.51199 8.9362 9.12799C8.8722 8.73332 8.73353 8.43466 8.5202 8.23199C8.31753 8.01866 8.0082 7.91199 7.5922 7.91199C7.26153 7.91199 6.9682 8.01332 6.7122 8.21599C6.46687 8.41866 6.2802 8.67466 6.1522 8.98399H4.6962V2.03999H10.2803V3.75199H6.2482L6.1362 7.33599C6.59487 6.85599 7.21887 6.61599 8.0082 6.61599C9.0002 6.61599 9.7042 6.95732 10.1203 7.63999C10.5469 8.31199 10.7603 9.25066 10.7603 10.456C10.7603 11.928 10.5203 13.0747 10.0403 13.896C9.5602 14.7173 8.7282 15.128 7.5442 15.128Z" fill="#FF0707"/>
</g>
<path d="M2 18H14" stroke="#FF0707" stroke-width="2"/>
</svg>
