<svg width="121" height="23" viewBox="0 0 121 23" fill="none" xmlns="http://www.w3.org/2000/svg">
<path d="M25.2809 5.82781C25.2809 7.43046 24.7753 9.03311 23.427 10.7815C21.9101 12.9669 19.5506 14.7152 16.3483 16.0265C13.4831 17.1921 10.4494 17.7748 7.07865 17.7748H2.35955L6.91011 4.80795H12.1348L8.25843 15.7351C10.1124 15.7351 12.1348 15.1523 13.9888 14.1324C15.8427 13.1126 17.3596 11.947 18.2022 10.4901C19.0449 9.17881 19.382 8.01324 19.382 7.13907C19.382 5.68212 18.8764 4.66225 18.0337 4.07947C17.191 3.49669 15.8427 3.2053 14.1573 3.2053H0L2.19101 0H16.3483C18.8764 0 20.8989 0.437086 22.4157 1.31126C24.4382 2.33113 25.2809 3.93377 25.2809 5.82781ZM27.3034 5.68212V3.78808H29.3258V5.68212H27.3034ZM27.3034 17.7748V7.57616H29.3258V17.7748H27.3034ZM37.2472 8.74172C36.236 8.74172 35.3933 9.17881 34.7191 9.76159C34.0449 10.4901 33.8764 11.5099 33.8764 12.6755C33.8764 13.8411 34.2135 14.8609 34.7191 15.5894C35.3933 16.1722 36.236 16.6093 37.2472 16.6093C38.427 16.6093 39.4382 16.1722 39.9438 15.5894C40.618 15.0066 40.7865 13.9868 40.7865 12.8212C40.7865 11.5099 40.4494 10.4901 39.9438 9.76159C39.2697 9.17881 38.427 8.74172 37.2472 8.74172ZM40.7865 16.4636C40.2809 17.0464 39.7753 17.4834 39.1011 17.6291C38.5955 17.9205 37.7528 18.0662 37.0787 18.0662C35.3933 18.0662 34.2135 17.6291 33.2022 16.6093C32.191 15.5894 31.6854 14.2781 31.6854 12.6755C31.6854 11.0728 32.191 9.76159 33.2022 8.74172C34.2135 7.72185 35.3933 7.28477 37.0787 7.28477C37.7528 7.28477 38.427 7.43046 39.1011 7.72185C39.6067 7.86755 40.2809 8.30464 40.7865 8.88742V7.57616H42.6405V17.4834C42.6405 19.0861 42.3034 20.2517 41.2921 20.9801C40.4494 21.5629 39.1011 22 37.2472 22C35.5618 22 34.382 21.7086 33.5393 21.1258C32.6966 20.6887 32.191 19.9603 32.191 18.9404H34.2135C34.2135 19.5232 34.382 19.8146 34.8876 20.106C35.3933 20.3974 36.236 20.543 37.2472 20.543C38.427 20.543 39.4382 20.3974 39.9438 19.9603C40.4494 19.5232 40.7865 18.7947 40.7865 17.9205V16.4636ZM48.0337 15.1523C48.0337 15.5894 48.0337 15.8808 48.2022 16.1722C48.3708 16.3179 48.5393 16.3179 49.0449 16.3179C49.2135 16.3179 49.2135 16.3179 49.382 16.3179C49.5506 16.3179 49.8876 16.3179 50.0562 16.3179V17.7748C49.7191 17.7748 49.382 17.7748 49.2135 17.7748C48.8764 17.9205 48.7079 17.9205 48.5393 17.9205C47.5281 17.9205 46.8539 17.7748 46.5169 17.4834C46.1798 17.0464 46.0112 16.6093 46.0112 15.7351V9.03311H44.3258V7.57616H46.0112V4.80795H48.0337V7.57616H50.0562V9.03311H48.0337V15.1523ZM59.1573 16.4636C58.6517 16.9007 57.9775 17.3377 57.3034 17.6291C56.6292 17.9205 55.7865 18.0662 55.1124 18.0662C53.9326 18.0662 52.9213 17.7748 52.2472 17.1921C51.573 16.755 51.236 16.0265 51.236 15.0066C51.236 14.1324 51.573 13.404 52.2472 12.8212C52.9213 12.3841 53.9326 11.947 55.2809 11.8013C55.618 11.8013 56.1236 11.8013 56.6292 11.6556C57.6405 11.6556 58.3146 11.5099 58.4831 11.5099C58.6517 11.3642 58.8202 11.2185 58.9888 11.2185C58.9888 11.0728 58.9888 10.7815 58.9888 10.3444C58.9888 9.76159 58.8202 9.4702 58.3146 9.17881C57.9775 8.88742 57.3034 8.74172 56.4607 8.74172C55.4494 8.74172 54.7753 8.88742 54.2697 9.3245C53.9326 9.61589 53.5955 10.053 53.5955 10.6358H51.7416C51.7416 9.61589 52.2472 8.74172 53.0899 8.15894C53.9326 7.57616 54.9438 7.28477 56.4607 7.28477C57.9775 7.28477 59.1573 7.57616 60 8.01324C60.6742 8.59603 61.0112 9.3245 61.0112 10.4901V15.4437C61.0112 15.8808 61.0112 16.1722 61.1798 16.3179C61.3483 16.4636 61.5169 16.4636 61.8539 16.4636C61.8539 16.4636 61.8539 16.4636 62.0225 16.4636C62.0225 16.4636 62.191 16.4636 62.3596 16.4636V17.7748C62.0225 17.7748 61.8539 17.9205 61.6854 17.9205C61.5169 17.9205 61.3483 17.9205 61.1798 17.9205C60.5056 17.9205 60 17.7748 59.6629 17.6291C59.3258 17.3377 59.1573 16.9007 59.1573 16.4636ZM58.9888 12.5298C58.4831 12.8212 57.6405 12.9669 56.2921 13.1126C55.7865 13.2583 55.4494 13.2583 55.2809 13.2583C54.6067 13.404 54.1011 13.5497 53.764 13.8411C53.427 14.1324 53.2584 14.4238 53.2584 15.0066C53.2584 15.4437 53.427 15.8808 53.764 16.1722C54.2697 16.4636 54.7753 16.6093 55.4494 16.6093C56.4607 16.6093 57.3034 16.3179 57.9775 15.8808C58.6517 15.4437 58.9888 14.8609 58.9888 14.1324V12.5298ZM64.2135 17.7748V3.78808H66.0674V17.7748H64.2135ZM77.6966 15.1523C77.6966 15.5894 77.6966 15.8808 77.8652 16.1722C78.0337 16.3179 78.2022 16.3179 78.7079 16.3179C78.8764 16.3179 78.8764 16.3179 79.0449 16.3179C79.2135 16.3179 79.5506 16.3179 79.7191 16.3179V17.7748C79.382 17.7748 79.0449 17.7748 78.8764 17.7748C78.5393 17.9205 78.3708 17.9205 78.2022 17.9205C77.191 17.9205 76.5169 17.7748 76.1798 17.4834C75.8427 17.0464 75.6742 16.6093 75.6742 15.7351V9.03311H73.9888V7.57616H75.6742V4.80795H77.6966V7.57616H79.7191V9.03311H77.6966V15.1523ZM83.0899 11.8013H89.4944C89.4944 10.7815 89.3258 10.053 88.6517 9.61589C88.1461 9.03311 87.4719 8.74172 86.4607 8.74172C85.4494 8.74172 84.6067 9.03311 84.1011 9.61589C83.5955 10.053 83.2584 10.7815 83.0899 11.8013ZM89.4944 14.4238H91.5169C91.1798 15.5894 90.6742 16.4636 89.8315 17.0464C88.8202 17.7748 87.6405 18.0662 86.2921 18.0662C84.7753 18.0662 83.427 17.6291 82.4157 16.6093C81.573 15.7351 81.0674 14.4238 81.0674 12.8212C81.0674 11.0728 81.573 9.76159 82.4157 8.74172C83.427 7.72185 84.6067 7.28477 86.2921 7.28477C87.9775 7.28477 89.3258 7.72185 90.1685 8.59603C91.1798 9.4702 91.6854 10.7815 91.6854 12.3841C91.6854 12.6755 91.6854 12.8212 91.6854 12.8212C91.6854 12.9669 91.5169 13.1126 91.5169 13.1126H83.0899C83.0899 14.2781 83.427 15.0066 84.1011 15.5894C84.6067 16.1722 85.4494 16.4636 86.4607 16.4636C87.3034 16.4636 87.9775 16.3179 88.4831 16.0265C88.9888 15.5894 89.3258 15.1523 89.4944 14.4238ZM93.0337 14.4238H94.8876C95.0562 15.1523 95.2247 15.5894 95.7303 16.0265C96.236 16.3179 97.0787 16.6093 97.9214 16.6093C98.764 16.6093 99.4382 16.4636 99.9438 16.1722C100.449 15.8808 100.618 15.4437 100.618 15.0066C100.618 14.5695 100.618 14.2781 100.281 14.1324C100.112 13.8411 99.6067 13.6954 98.9326 13.5497L96.7416 13.1126C95.3933 12.8212 94.5506 12.5298 94.0449 12.0927C93.5393 11.6556 93.3708 11.0728 93.3708 10.1987C93.3708 9.3245 93.7079 8.59603 94.5506 8.15894C95.3933 7.57616 96.4045 7.28477 97.7528 7.28477C99.1011 7.28477 100.281 7.57616 101.124 8.15894C101.966 8.74172 102.303 9.4702 102.303 10.3444V10.4901H100.449C100.449 9.90728 100.112 9.4702 99.6067 9.17881C99.2697 8.88742 98.5955 8.74172 97.7528 8.74172C96.9101 8.74172 96.4045 8.88742 95.8989 9.17881C95.5618 9.3245 95.3933 9.76159 95.3933 10.1987C95.3933 10.4901 95.3933 10.7815 95.7303 10.9272C95.8989 11.0728 96.4045 11.2185 97.2472 11.3642L99.1011 11.8013C100.449 12.0927 101.292 12.3841 101.798 12.8212C102.303 13.2583 102.64 13.9868 102.64 14.7152C102.64 15.7351 102.135 16.6093 101.292 17.1921C100.449 17.7748 99.2697 18.0662 97.7528 18.0662C96.236 18.0662 95.0562 17.7748 94.2135 17.1921C93.5393 16.4636 93.0337 15.5894 93.0337 14.4238ZM107.36 15.1523C107.36 15.5894 107.36 15.8808 107.528 16.1722C107.697 16.3179 107.865 16.3179 108.371 16.3179C108.539 16.3179 108.539 16.3179 108.708 16.3179C108.876 16.3179 109.213 16.3179 109.382 16.3179V17.7748C109.045 17.7748 108.708 17.7748 108.539 17.7748C108.202 17.9205 108.034 17.9205 107.865 17.9205C106.854 17.9205 106.18 17.7748 105.843 17.4834C105.506 17.0464 105.337 16.6093 105.337 15.7351V9.03311H103.652V7.57616H105.337V4.80795H107.36V7.57616H109.382V9.03311H107.36V15.1523ZM110.393 14.4238H112.416C112.416 15.1523 112.753 15.5894 113.258 16.0265C113.764 16.3179 114.438 16.6093 115.281 16.6093C116.124 16.6093 116.798 16.4636 117.303 16.1722C117.809 15.8808 118.146 15.4437 118.146 15.0066C118.146 14.5695 117.978 14.2781 117.64 14.1324C117.472 13.8411 116.966 13.6954 116.292 13.5497L114.101 13.1126C112.921 12.8212 111.91 12.5298 111.573 12.0927C111.067 11.6556 110.73 11.0728 110.73 10.1987C110.73 9.3245 111.236 8.59603 111.91 8.15894C112.753 7.57616 113.764 7.28477 115.112 7.28477C116.629 7.28477 117.64 7.57616 118.483 8.15894C119.326 8.74172 119.663 9.4702 119.663 10.3444V10.4901H117.809C117.809 9.90728 117.472 9.4702 117.135 9.17881C116.629 8.88742 115.955 8.74172 115.112 8.74172C114.438 8.74172 113.764 8.88742 113.427 9.17881C112.921 9.3245 112.753 9.76159 112.753 10.1987C112.753 10.4901 112.921 10.7815 113.09 10.9272C113.427 11.0728 113.933 11.2185 114.607 11.3642L116.461 11.8013C117.809 12.0927 118.82 12.3841 119.326 12.8212C119.831 13.2583 120 13.9868 120 14.7152C120 15.7351 119.663 16.6093 118.82 17.1921C117.978 17.7748 116.629 18.0662 115.112 18.0662C113.596 18.0662 112.584 17.7748 111.742 17.1921C110.899 16.4636 110.562 15.5894 110.393 14.4238Z" fill="black"/>
</svg>
