<svg width="183" height="214" viewBox="0 0 183 214" fill="none" xmlns="http://www.w3.org/2000/svg">
<path d="M0 33L0 0L183 0V15.5L0 33Z" fill="#1B3D8D"/>
<path d="M0 48.5L0 41.5L183 23V30L0 48.5Z" fill="#1B3D8D"/>
<path d="M0 190.5L0 183.5L183 165V172L0 190.5Z" fill="#1B3D8D"/>
<path d="M183 182V214H0V198.686L183 182Z" fill="#1B3D8D"/>
</svg>
